{
  "profiles": {
    "Syroot.Worms.Mgame.Launcher OW": {
      "commandName": "Project",
      "workingDirectory": "C:\\Games\\Online Worms"
    },
    "Syroot.Worms.Mgame.Launcher WWPA": {
      "commandName": "Project",
      "workingDirectory": "C:\\Games\\Worms World Party Aqua"
    }
  }
}